<?xml version="1.0" encoding="UTF-8" standalone="no"?>
<svg width="284px" height="169px" viewBox="0 0 284 169" version="1.1" xmlns="http://www.w3.org/2000/svg" xmlns:xlink="http://www.w3.org/1999/xlink" xmlns:sketch="http://www.bohemiancoding.com/sketch/ns">
    <!-- Generator: Sketch 3.5.2 (25235) - http://www.bohemiancoding.com/sketch -->
    <title>illustration-bb-to-jira</title>
    <desc>Created with Sketch.</desc>
    <defs></defs>
    <g id="Flow-2-JIRA-adds-Bitbucket" stroke="none" stroke-width="1" fill="none" fill-rule="evenodd" sketch:type="MSPage">
        <g id="Easy-Connect-2.6.1----Bitbucket-linked-but-no-repos-added-Copy-11" sketch:type="MSArtboardGroup" transform="translate(-504.000000, -197.000000)">
            <g id="Overlay" sketch:type="MSLayerGroup" transform="translate(-1.000000, -70.000000)">
                <g id="Modal-600px-–-footer-+-next--+-Shape-+-next--+-Shape-Copy-+-Oval-49-Copy-+-Oval-49-Copy-2-+-Oval-49-Copy-3-Copy" transform="translate(342.000000, 205.000000)" sketch:type="MSShapeGroup">
                    <g id="Modal-600px-–-footer">
                        <g id="illustration-bb-to-jira" transform="translate(164.000000, 62.000000)">
                            <path d="M241.170127,169.000029 C250.606847,152.492715 256,133.376177 256,113 C256,50.5918233 205.408177,0 143,0 C80.5918233,0 30,50.5918233 30,113 C30,133.376177 35.393153,152.492715 44.8298725,169.000029 L241.170144,169 Z" id="Oval-84" fill="#DEEFF9"></path>
                            <path d="M1,167 L282,167 L282,169 L1,169 L1,167 Z" id="Fill-2-Copy" fill="#1F5081"></path>
                            <g id="Imported-Layers" transform="translate(94.508523, 90.162500)" stroke="#EB8B3C" stroke-width="4">
                                <path d="M0.491477273,9.8375 L69.4914773,9.8375" id="Stroke-1" stroke-linecap="round"></path>
                                <path d="M63.5465988,0.959895833 L72.5465988,9.95989583 L63.5465988,18.9598958" id="Path-3191"></path>
                            </g>
                            <g id="Jira-browser-Copy" transform="translate(0.000000, 57.000000)">
                                <rect id="Rectangle-717" fill="#F5F5F5" x="0" y="0" width="116" height="82" rx="5"></rect>
                                <path d="M56,50 L97,50 L97,52 L56,52 L56,50 Z" id="Fill-16" fill="#CAD4DE"></path>
                                <path d="M56,58 L105,58 L105,60 L56,60 L56,58 Z" id="Fill-17" fill="#CAD4DE"></path>
                                <path d="M56,66 L97,66 L97,68 L56,68 L56,66 Z" id="Fill-18" fill="#CAD4DE"></path>
                                <path d="M65,38 L73,38 L73,40 L65,40 L65,38 Z" id="Fill-20" fill="#4AC6C6"></path>
                                <path d="M58.1220703,29.1801758 L63.0931663,34.1512718 L58.2449297,38.9995084" id="Path-3216" stroke="#4AC6C6" stroke-width="2"></path>
                                <path d="M1,3.99008742 C1,2.33870774 2.34676062,1 4.0049167,1 L46,1 L46,48.2910156 L46,81 L4.0049167,81 C2.34534703,81 1,79.6616553 1,78.0099126 L1,3.99008742 Z" id="Rectangle-717" fill="#3572B0"></path>
                                <path d="M25,53.747965 C28.4504544,52.8598794 31,49.7276789 31,46 C31,42.2723211 28.4504544,39.1401206 25,38.252035 L25,32 L21,32 L21,38.252035 C17.5495456,39.1401206 15,42.2723211 15,46 C15,49.7276789 17.5495456,52.8598794 21,53.747965 L21,60 L25,60 L25,53.747965 Z M23,51 C25.7614237,51 28,48.7614237 28,46 C28,43.2385763 25.7614237,41 23,41 C20.2385763,41 18,43.2385763 18,46 C18,48.7614237 20.2385763,51 23,51 Z" id="Oval-120" fill="#FEFEFE"></path>
                                <path d="M0,4.99668583 C0,2.23709245 2.23933245,0 5.00297576,0 L110.997024,0 C113.760091,0 116,2.24157855 116,4.99668583 L116,16 L90.57929,16 L0,16 L0,4.99668583 Z" id="Rectangle-717" fill="#3572B0"></path>
                                <path d="M9,8 C9,8.552 8.552,9 8,9 C7.448,9 7,8.552 7,8 C7,7.448 7.448,7 8,7 C8.552,7 9,7.448 9,8" id="Fill-5" fill="#FF4E4A"></path>
                                <path d="M13,8 C13,8.552 12.552,9 12,9 C11.448,9 11,8.552 11,8 C11,7.448 11.448,7 12,7 C12.552,7 13,7.448 13,8" id="Fill-6" fill="#FFBD17"></path>
                                <path d="M17,8 C17,8.552 16.552,9 16,9 C15.448,9 15,8.552 15,8 C15,7.448 15.448,7 16,7 C16.552,7 17,7.448 17,8" id="Fill-7" fill="#4AC6C6"></path>
                                <rect id="Rectangle-725" opacity="0.25" fill="#2A5082" x="1" y="17" width="114" height="2"></rect>
                                <rect id="Rectangle-725" fill="#2A5082" x="1" y="15" width="114" height="2"></rect>
                                <rect id="Rectangle-717" stroke="#205081" stroke-width="2" x="0" y="0" width="116" height="82" rx="5"></rect>
                            </g>
                            <g id="Jira-browser" transform="translate(184.906250, 57.000000)">
                                <rect id="Rectangle-717" stroke="#205081" stroke-width="2" fill="#F5F5F5" x="0.09375" y="0" width="97" height="82" rx="5"></rect>
                                <path d="M35.7386913,32.3258226 C35.7386913,30.719371 37.0358596,29.4228306 38.6380865,29.4228306 C40.2409824,29.4228306 41.5368127,30.719371 41.5368127,32.3258226 C41.5368127,33.9282581 40.2409824,35.2288145 38.6380865,35.2288145 C37.0358596,35.2288145 35.7386913,33.9282581 35.7386913,32.3258226 L35.7386913,32.3258226 Z M57.6828446,35.2288145 C59.2803886,35.2288145 60.5809018,33.9282581 60.5809018,32.3258226 C60.5809018,30.719371 59.2803886,29.4248387 57.6828446,29.4228306 C56.0799487,29.4228306 54.7847874,30.719371 54.7847874,32.3258226 C54.7847874,33.9282581 56.0799487,35.2288145 57.6828446,35.2288145 L57.6828446,35.2288145 Z M48.1604655,32.5808468 C49.7626924,32.5808468 51.0585227,31.2802903 51.0585227,29.6771855 C51.0585227,28.0700645 49.7626924,26.7741935 48.1604655,26.7741935 C46.5582386,26.7741935 45.2617394,28.0700645 45.2617394,29.6771855 C45.2617394,31.2802903 46.5582386,32.5808468 48.1604655,32.5808468 L48.1604655,32.5808468 Z M64.5352914,37.5119839 C64.3740652,37.3894919 64.1800587,37.3252339 63.9833761,37.3252339 C63.874331,37.3252339 63.7646169,37.3453145 63.6595858,37.3854758 C61.6967742,38.1364919 59.7038581,38.7067823 57.884879,39.1311532 C57.5135905,39.2175 57.2138838,39.4932742 57.089452,39.8246048 C55.7641862,43.4571935 52.3791056,46.9164194 48.8281158,50.5396371 C48.6856213,50.6748468 48.4862628,50.8535645 48.1611345,50.8535645 C47.8366752,50.8535645 47.6393237,50.6802016 47.4941532,50.5396371 C43.9438325,46.9164194 40.5587518,43.4692419 39.2328171,39.8359839 C39.1083853,39.5053226 38.8086785,39.2295484 38.438728,39.1425323 C36.6184109,38.7188306 34.620143,38.1304677 32.6600073,37.380121 C32.5543072,37.3399597 32.4439241,37.319879 32.334879,37.319879 C32.1381965,37.319879 31.9482038,37.3814597 31.7869776,37.504621 C31.535438,37.6967258 31.4049853,38.0079758 31.4344208,38.3071774 C31.7354655,41.3279758 32.9282716,44.2811694 35.0817449,47.3755968 C37.1054344,50.2852823 39.7452621,52.9787661 42.2974523,55.5825565 C46.9997709,60.3818306 51.442522,64.9147016 51.8318732,70.1704758 C51.8673295,70.644379 52.2620326,71.0125242 52.7376833,71.0125242 L58.2628574,71.0125242 C58.511721,71.0125242 58.7492119,70.9101129 58.9211419,70.7293871 C59.0924029,70.5493306 59.1827163,70.3070242 59.1706745,70.0580242 C58.9967375,66.5439113 57.6748167,63.0251129 55.1293163,59.3008226 C54.5961327,58.5196855 54.0248167,57.7606371 53.4274102,57.0169839 C53.1852364,56.7144355 53.2862537,56.3375887 53.4722324,56.1481613 C53.6555352,55.9600726 53.840176,55.7726532 54.0254857,55.5825565 C56.577676,52.9780968 59.2175037,50.2852823 61.2411932,47.3755968 C63.3939974,44.2805 64.5868035,41.3447097 64.8878482,38.3245806 C64.9179527,38.0213629 64.7801411,37.6987339 64.5352914,37.5119839 L64.5352914,37.5119839 Z M42.2325605,59.6709758 C42.1021078,59.5344274 41.9101081,59.3945323 41.5876558,59.3945323 C41.17489,59.3945323 40.9307093,59.6803468 40.8377199,59.8215806 C38.5143237,63.3597903 37.3141587,66.6992016 37.1482496,70.0553468 C37.1362078,70.3023387 37.2271902,70.5479919 37.3984512,70.7287177 C37.5697122,70.9087742 37.810548,71.0125242 38.0594117,71.0125242 L43.574551,71.0125242 C44.0488636,71.0125242 44.4489186,70.6410323 44.483706,70.167129 C44.6041239,68.5499677 45.1072031,66.928121 46.023717,65.2246129 C46.3408174,64.6355806 46.0939608,64.0820242 45.911327,63.8450726 C45.0021719,62.6623226 43.8889754,61.4005887 42.2325605,59.6709758 L42.2325605,59.6709758 Z M47.5235887,46.0127903 C47.7416789,46.2249758 47.9892045,46.2651371 48.1597966,46.2651371 L48.1618035,46.2651371 C48.3323955,46.2651371 48.5799212,46.2249758 48.7986804,46.0127903 C50.7467742,44.1171774 51.7937408,41.9069677 52.0232038,41.2925 C52.0566532,41.2021371 52.0907716,41.0997258 52.0907716,40.9571532 C52.0907716,40.4665161 51.6820198,40.1157742 51.2552053,40.1157742 C50.9019795,40.1157742 49.8978281,40.2201935 48.1664864,40.2201935 L48.1551136,40.2201935 C46.424441,40.2201935 45.4202896,40.1157742 45.0677328,40.1157742 C44.6402493,40.1157742 44.2314974,40.4665161 44.2314974,40.9571532 C44.2314974,41.0997258 44.2649468,41.2021371 44.2990652,41.2925 C44.5285282,41.9069677 45.5748259,44.1171774 47.5235887,46.0127903 L47.5235887,46.0127903 Z" id="Fill-12" fill="#1F5081"></path>
                                <path d="M0.09375,4.99668583 C0.09375,2.23709245 2.32527683,0 5.08777484,0 L92.0997252,0 C94.8578489,0 97.09375,2.24157855 97.09375,4.99668583 L97.09375,16 L41.9589844,16 L0.09375,16 L0.09375,4.99668583 Z" id="Rectangle-717" stroke="#205081" stroke-width="2" fill="#3572B0"></path>
                                <rect id="Rectangle-727" fill-opacity="0.25" fill="#2A5082" x="0.09375" y="17" width="96" height="2"></rect>
                                <path d="M9.09375,8 C9.09375,8.552 8.64575,9 8.09375,9 C7.54175,9 7.09375,8.552 7.09375,8 C7.09375,7.448 7.54175,7 8.09375,7 C8.64575,7 9.09375,7.448 9.09375,8" id="Fill-5" fill="#FF4E4A"></path>
                                <path d="M13.09375,8 C13.09375,8.552 12.64575,9 12.09375,9 C11.54175,9 11.09375,8.552 11.09375,8 C11.09375,7.448 11.54175,7 12.09375,7 C12.64575,7 13.09375,7.448 13.09375,8" id="Fill-6" fill="#FFBD17"></path>
                                <path d="M17.09375,8 C17.09375,8.552 16.64575,9 16.09375,9 C15.54175,9 15.09375,8.552 15.09375,8 C15.09375,7.448 15.54175,7 16.09375,7 C16.64575,7 17.09375,7.448 17.09375,8" id="Fill-7" fill="#4AC6C6"></path>
                            </g>
                        </g>
                    </g>
                </g>
            </g>
        </g>
    </g>
</svg>